br/com/wiretecnologia/service/ServicoAgendaRpService.class
br/com/wiretecnologia/entities/AccountCredentials.class
br/com/wiretecnologia/repositories/ProdutoRepository.class
br/com/wiretecnologia/DomainConfig.class
br/com/wiretecnologia/service/ProdutoService.class
br/com/wiretecnologia/service/ClienteService.class
br/com/wiretecnologia/repositories/ClienteRepository.class
br/com/wiretecnologia/entities/Produto.class
br/com/wiretecnologia/entities/Cliente.class
br/com/wiretecnologia/entities/ServicoAgenda.class
br/com/wiretecnologia/entities/Operacional.class
br/com/wiretecnologia/repositories/ServicoAgendaRepository.class
br/com/wiretecnologia/entities/User.class
br/com/wiretecnologia/entities/Pedido.class
br/com/wiretecnologia/repositories/UserRepository.class
br/com/wiretecnologia/repositories/PedidoRepository.class
