/home/fabio/Imagens/projectloki/commons/src/main/java/br/com/wiretecnologia/RequestUtils.java
/home/fabio/Imagens/projectloki/commons/src/main/java/br/com/wiretecnologia/Exception/ObjectNotFoundException.java
/home/fabio/Imagens/projectloki/commons/src/main/java/br/com/wiretecnologia/DateUtils.java
/home/fabio/Imagens/projectloki/commons/src/main/java/br/com/wiretecnologia/JsonUtils.java
